
./octez-client --protocol ProxfordLcjScHFgpTURyTjcKR88D5juu1jGgT18pPUoGTVgxiA --mode mockup --no-base-dir-warnings run script michelson_test_scripts/opcodes/sub_timestamp_delta.tz on storage 111 and input '(Pair 100 2000000000000000000)' --level 1 --trace-stack
storage
  -1999999999999999900
emitted operations
  
big_map diff
  
trace
  - location: 9 (just consumed gas: 7.437)
    [ (Pair (Pair "1970-01-01T00:01:40Z" 2000000000000000000) "1970-01-01T00:01:51Z") ]
  - location: 9 (just consumed gas: 0.010)
    [ (Pair "1970-01-01T00:01:40Z" 2000000000000000000) ]
  - location: 10 (just consumed gas: 0.010)
    [ (Pair "1970-01-01T00:01:40Z" 2000000000000000000)
      (Pair "1970-01-01T00:01:40Z" 2000000000000000000) ]
  - location: 11 (just consumed gas: 0.010)
    [ "1970-01-01T00:01:40Z"
      (Pair "1970-01-01T00:01:40Z" 2000000000000000000) ]
  - location: 12 (just consumed gas: 0)
    [ (Pair "1970-01-01T00:01:40Z" 2000000000000000000) ]
  - location: 14 (just consumed gas: 0.010)
    [ 2000000000000000000 ]
  - location: 12 (just consumed gas: 0.025)
    [ "1970-01-01T00:01:40Z"
      2000000000000000000 ]
  - location: 15 (just consumed gas: 0.039)
    [ -1999999999999999900 ]
  - location: 16 (just consumed gas: 0.010)
    [ {}
      -1999999999999999900 ]
  - location: 18 (just consumed gas: 0.010)
    [ (Pair {} -1999999999999999900) ]

