
./octez-client --protocol ProxfordLcjScHFgpTURyTjcKR88D5juu1jGgT18pPUoGTVgxiA --mode mockup --no-base-dir-warnings run script michelson_test_scripts/opcodes/str_id.tz on storage None and input '"Hello"' --level 1 --trace-stack
storage
  (Some "Hello")
emitted operations
  
big_map diff
  
trace
  - location: 8 (just consumed gas: 4.564)
    [ (Pair "Hello" None) ]
  - location: 8 (just consumed gas: 0.010)
    [ "Hello" ]
  - location: 9 (just consumed gas: 0.010)
    [ (Some "Hello") ]
  - location: 10 (just consumed gas: 0.010)
    [ {}
      (Some "Hello") ]
  - location: 12 (just consumed gas: 0.010)
    [ (Pair {} (Some "Hello")) ]

