
./octez-client --protocol ProxfordLcjScHFgpTURyTjcKR88D5juu1jGgT18pPUoGTVgxiA --mode mockup --no-base-dir-warnings run script michelson_test_scripts/opcodes/concat_hello_bytes.tz on storage '{}' and input '{ 0xcd }' --level 1 --trace-stack
storage
  { 0xffcd }
emitted operations
  
big_map diff
  
trace
  - location: 9 (just consumed gas: 6.422)
    [ (Pair { 0xcd } {}) ]
  - location: 9 (just consumed gas: 0.010)
    [ { 0xcd } ]
  - location: 10 (just consumed gas: 0)
    [ 0xcd ]
  - location: 12 (just consumed gas: 0.010)
    [ 0xff
      0xcd ]
  - location: 15 (just consumed gas: 0.046)
    [ 0xffcd ]
  - location: 10 (just consumed gas: 0.015)
    [ { 0xffcd } ]
  - location: 16 (just consumed gas: 0.010)
    [ {}
      { 0xffcd } ]
  - location: 18 (just consumed gas: 0.010)
    [ (Pair {} { 0xffcd }) ]

