
./octez-client --protocol ProxfordLcjScHFgpTURyTjcKR88D5juu1jGgT18pPUoGTVgxiA --mode mockup --no-base-dir-warnings run script michelson_test_scripts/opcodes/contains_all.tz on storage None and input '(Pair { "B" } { "B" })' --level 1 --trace-stack
storage
  (Some True)
emitted operations
  
big_map diff
  
trace
  - location: 12 (just consumed gas: 32.251)
    [ (Pair (Pair { "B" } { "B" }) None) ]
  - location: 12 (just consumed gas: 0.010)
    [ (Pair { "B" } { "B" }) ]
  - location: 13 (just consumed gas: 0.010)
    [ (Pair { "B" } { "B" })
      (Pair { "B" } { "B" }) ]
  - location: 14 (just consumed gas: 0.010)
    [ { "B" }
      (Pair { "B" } { "B" }) ]
  - location: 15 (just consumed gas: 0)
    [ (Pair { "B" } { "B" }) ]
  - location: 17 (just consumed gas: 0.010)
    [ { "B" } ]
  - location: 15 (just consumed gas: 0.025)
    [ { "B" }
      { "B" } ]
  - location: 18 (just consumed gas: 0.300)
    [ {}
      { "B" }
      { "B" } ]
  - location: 20 (just consumed gas: 0.010)
    [ { "B" }
      {}
      { "B" } ]
  - location: 21 (just consumed gas: 0)
    [ "B"
      {}
      { "B" } ]
  - location: 23 (just consumed gas: 0.010)
    [ (Pair "B" {})
      { "B" } ]
  - location: 24 (just consumed gas: 0.010)
    [ (Pair "B" {})
      (Pair "B" {})
      { "B" } ]
  - location: 25 (just consumed gas: 0.010)
    [ "B"
      (Pair "B" {})
      { "B" } ]
  - location: 26 (just consumed gas: 0)
    [ (Pair "B" {})
      { "B" } ]
  - location: 28 (just consumed gas: 0.010)
    [ {}
      { "B" } ]
  - location: 26 (just consumed gas: 0.025)
    [ "B"
      {}
      { "B" } ]
  - location: 29 (just consumed gas: 0.010)
    [ True
      "B"
      {}
      { "B" } ]
  - location: 32 (just consumed gas: 0.010)
    [ "B"
      True
      {}
      { "B" } ]
  - location: 33 (just consumed gas: 0.132)
    [ { "B" }
      { "B" } ]
  - location: 21 (just consumed gas: 0.015)
    [ { "B" }
      { "B" } ]
  - location: 34 (just consumed gas: 0.010)
    [ True
      { "B" }
      { "B" } ]
  - location: 37 (just consumed gas: 0.010)
    [ { "B" }
      True
      { "B" } ]
  - location: 38 (just consumed gas: 0.010)
    [ (Pair { "B" } True)
      { "B" } ]
  - location: 39 (just consumed gas: 0.010)
    [ { "B" }
      (Pair { "B" } True) ]
  - location: 40 (just consumed gas: 0)
    [ "B"
      (Pair { "B" } True) ]
  - location: 42 (just consumed gas: 0.010)
    [ (Pair "B" { "B" } True) ]
  - location: 43 (just consumed gas: 0.010)
    [ (Pair "B" { "B" } True)
      (Pair "B" { "B" } True) ]
  - location: 44 (just consumed gas: 0.010)
    [ (Pair "B" { "B" } True)
      (Pair "B" { "B" } True)
      (Pair "B" { "B" } True) ]
  - location: 45 (just consumed gas: 0.010)
    [ "B"
      (Pair "B" { "B" } True)
      (Pair "B" { "B" } True) ]
  - location: 46 (just consumed gas: 0)
    [ (Pair "B" { "B" } True)
      (Pair "B" { "B" } True) ]
  - location: 49 (just consumed gas: 0.010)
    [ (Pair { "B" } True)
      (Pair "B" { "B" } True) ]
  - location: 50 (just consumed gas: 0.010)
    [ { "B" }
      (Pair "B" { "B" } True) ]
  - location: 51 (just consumed gas: 0)
    [ (Pair "B" { "B" } True) ]
  - location: 54 (just consumed gas: 0.010)
    [ (Pair { "B" } True) ]
  - location: 55 (just consumed gas: 0.010)
    [ True ]
  - location: 51 (just consumed gas: 0.025)
    [ { "B" }
      True ]
  - location: 56 (just consumed gas: 0.010)
    [ { "B" }
      { "B" }
      True ]
  - location: 46 (just consumed gas: 0.025)
    [ "B"
      { "B" }
      { "B" }
      True ]
  - location: 57 (just consumed gas: 0.117)
    [ True
      { "B" }
      True ]
  - location: 58 (just consumed gas: 0)
    [ { "B" }
      True ]
  - location: 60 (just consumed gas: 0.010)
    [ True
      { "B" } ]
  - location: 58 (just consumed gas: 0.025)
    [ True
      True
      { "B" } ]
  - location: 61 (just consumed gas: 0.010)
    [ True
      { "B" } ]
  - location: 62 (just consumed gas: 0.010)
    [ { "B" }
      True ]
  - location: 63 (just consumed gas: 0.010)
    [ (Pair { "B" } True) ]
  - location: 40 (just consumed gas: 0.015)
    [ (Pair { "B" } True) ]
  - location: 64 (just consumed gas: 0.010)
    [ True ]
  - location: 65 (just consumed gas: 0.010)
    [ (Some True) ]
  - location: 66 (just consumed gas: 0.010)
    [ {}
      (Some True) ]
  - location: 68 (just consumed gas: 0.010)
    [ (Pair {} (Some True)) ]

