

{
  "opponent": "tz1gjaF81ZRRvdzjobyfVNsAeSC6PScjfQwN",
  "start_tick": "0",
  "end_tick": "633",
  "dissection": [
    {
      "state": "srs136U2KJweAXf7Excw61Zeu5R5L7mi2TCb1WKkowQJ6UdHJ2VZWS",
      "tick": "0"
    },
    {
      "state": "srs12agNoz39KXcSbBf8barZoBUceCqVmx8pxyzQV2tibFsn8zxnao",
      "tick": "19"
    },
    {
      "state": "srs12YhgwgZViRKy49MUqjZ84MXDTaXW1TdMEFcbEwNGUzXC9FEK7C",
      "tick": "38"
    },
    {
      "state": "srs13AaXhR7TY8ZNbzm8V2fHmXEcvrkAEH8Da31ofpdHeW5vvXcgWX",
      "tick": "57"
    },
    {
      "state": "srs12h33sztSGos4a1KM2gDzb3CEsf5kcr54vACBvx8MY99Ckp4HFd",
      "tick": "76"
    },
    {
      "state": "srs12BQSP8AT2yQjxZiM7GnDYYrsF9hvKVAa4F95rGabvykj7y8Quk",
      "tick": "95"
    },
    {
      "state": "srs12tyi9TvBNmL97QLNcbhpUDcpdGo7xAivBgHG4LQBAGbAmHJRKS",
      "tick": "114"
    },
    {
      "state": "srs12wEkZvnwixdFgyigeQnQnddU9yHqtsF3fh4h9zt485U4w5MVk2",
      "tick": "133"
    },
    {
      "state": "srs11qAtbBQqGk3bq4LZaNBBZHqNsG2Vs7spqb5vbb3j3gCYTNR63u",
      "tick": "152"
    },
    {
      "state": "srs13BnodUzUjbf6UyXCdTqAaP8NQ5nKkjmkKGYqMcGujJGdVhYCRA",
      "tick": "171"
    },
    {
      "state": "srs13K2SXrJPxBdj9vWXLBGC8nqBdLhdLVLmb6fCdAUJ5upnA9eTQ4",
      "tick": "190"
    },
    {
      "state": "srs12Bw964oGVGzY48eaxhR5ugqJtKhz3cPYks6RBvUtm9xjgbrxmS",
      "tick": "209"
    },
    {
      "state": "srs12At6f3MRYLUA8Wf4twvnZ5z7DU4aHM69PgKcuGzjL3PQAPVdav",
      "tick": "228"
    },
    {
      "state": "srs13A5m4jCjpmQyRDt7S8z4MRHSkFj2o161iyJzdtNeX1srcHKdzu",
      "tick": "247"
    },
    {
      "state": "srs135jAbeGJLtNvzAZpVaonoeRRiBdboiG67FiMCZ6inYrr14q5Dq",
      "tick": "266"
    },
    {
      "state": "srs137Qt3WRKtvNDqMCcjDf1ZrnEHUfQKrHcmJouqi3Mht6QQm8stL",
      "tick": "285"
    },
    {
      "state": "srs11dJ1u2u9Q4Eepr9dZzecsCfpgAuAsxy9o41fwG92CAddY8Z2ht",
      "tick": "304"
    },
    {
      "state": "srs11uQ34ijb6qkJNBmvfmkBGCSZMLjEpogN3ERetP6VXMkeQY7dh2",
      "tick": "323"
    },
    {
      "state": "srs12Cg7Z7TgkKkLfnQ5FUdsXTQdsdamrBos1VxQgP3Fs7c9nvzZmR",
      "tick": "342"
    },
    {
      "state": "srs133S41ZhxdDSwQJcrouJdSKWCB6Br3dtvZz5MENwPp1c9NK3APh",
      "tick": "361"
    },
    {
      "state": "srs12KSGHUXka7eKmu8FWtFygZaLiVJH5QrAKckp1mqsG1CemZcbCr",
      "tick": "380"
    },
    {
      "state": "srs12fDpCTzqcZPxyUXJbwCGnW5QtRtTCvcG7Xo4AbyBC1SJ92AJqw",
      "tick": "399"
    },
    {
      "state": "srs11Zwvg6hce1R3i66ACDWVT4sydgoZAnkhWayt53YPP3KpsZYtZF",
      "tick": "418"
    },
    {
      "state": "srs12kFLFHow4S2ekFEUcjjmhLFqWDryb87zjguE9KFCquttvZgA3q",
      "tick": "437"
    },
    {
      "state": "srs132QruyXYk5yZ6CfPGqikw1YZzVYNjtYfrAE4zwwuLqrWbq5tai",
      "tick": "456"
    },
    {
      "state": "srs11iq5x4wDdJ1Z3vHuLBQCYXJXksPighXme97CfBnQEKsNLDtd8V",
      "tick": "475"
    },
    {
      "state": "srs11wJnKxanxSbueBGzXo4hYDh6axoRPV3EjzEdBWnV2zcgMUfpPJ",
      "tick": "494"
    },
    {
      "state": "srs126UP438e8RnLXa7mkLpq7VpD1g5H81gnNrW4nFnosr2WGx2R2r",
      "tick": "513"
    },
    {
      "state": "srs12pFZfP2hzjBLGHWVKPVJf6JUh7Dv7YhWCdgN2uXSfDHotAQMvU",
      "tick": "532"
    },
    {
      "state": "srs11TxLBBbL1iFAC3T4RvuCJTs8JAB2mKzjHZfsNrdaqoifoh4QQa",
      "tick": "551"
    },
    {
      "state": "srs12qdpbApZiMhGLSbVjXf7P2AkucE3rTvp7aq8Eoo3cnDV5EqoFN",
      "tick": "570"
    },
    {
      "tick": "589"
    },
    {
      "tick": "633"
    }
  ]
}


{
  "opponent": "tz1gjaF81ZRRvdzjobyfVNsAeSC6PScjfQwN",
  "start_tick": "118",
  "end_tick": "119",
  "dissection": [
    {
      "state": "srs11U6dKyooDmRbA82eVqmtQPA2JwkpJhqmgZSFxda5vqJ7LRbcNs",
      "tick": "118"
    },
    {
      "state": "srs132HMe3nYGRAt5e4DYbYF6ZSguFh4fqn88hnKEvU54BN5ewwNx1",
      "tick": "119"
    }
  ]
}
